# Blender 3.1.0 MTL File: 'Ford_Focus.blend'
# www.blender.org

newmtl Material.001
Ns 250.000000
Ka 1.000000 1.000000 1.000000
Kd 0.800000 0.779583 0.360646
Ks 0.500000 0.500000 0.500000
Ke 0.000000 0.000000 0.000000
Ni 1.450000
d 1.000000
illum 2

newmtl Material.002
Ns 250.000000
Ka 1.000000 1.000000 1.000000
Kd 0.039680 0.039680 0.039680
Ks 0.500000 0.500000 0.500000
Ke 0.000000 0.000000 0.000000
Ni 1.450000
d 1.000000
illum 2

newmtl Material.003
Ns 250.000000
Ka 1.000000 1.000000 1.000000
Kd 0.800000 0.001499 0.000000
Ks 0.500000 0.500000 0.500000
Ke 0.000000 0.000000 0.000000
Ni 1.450000
d 1.000000
illum 2

newmtl Material.004
Ns 250.000000
Ka 1.000000 1.000000 1.000000
Kd 1.000000 1.000000 1.000000
Ks 0.500000 0.500000 0.500000
Ke 0.000000 0.000000 0.000000
Ni 1.450000
d 1.000000
illum 2

newmtl Material.006
Ns 250.000000
Ka 1.000000 1.000000 1.000000
Kd 0.365766 0.645560 0.800000
Ks 0.500000 0.500000 0.500000
Ke 0.000000 0.000000 0.000000
Ni 1.450000
d 1.000000
illum 2

newmtl Material.007
Ns 0.000000
Ka 1.000000 1.000000 1.000000
Kd 0.000000 0.000000 0.000000
Ks 0.500000 0.500000 0.500000
Ke 0.000000 0.000000 0.000000
Ni 1.450000
d 1.000000
illum 2

newmtl Material.008
Ns 250.000000
Ka 1.000000 1.000000 1.000000
Kd 0.507069 0.507069 0.507069
Ks 0.500000 0.500000 0.500000
Ke 0.000000 0.000000 0.000000
Ni 1.450000
d 1.000000
illum 2

newmtl Material.009
Ns 250.000000
Ka 1.000000 1.000000 1.000000
Kd 0.010022 0.003161 0.000000
Ks 0.500000 0.500000 0.500000
Ke 0.000000 0.000000 0.000000
Ni 1.450000
d 1.000000
illum 2

newmtl Material.010
Ns 250.000000
Ka 1.000000 1.000000 1.000000
Kd 0.131422 0.144957 0.401969
Ks 0.500000 0.500000 0.500000
Ke 0.000000 0.000000 0.000000
Ni 1.450000
d 1.000000
illum 2
